bpsk.vcd
$date
	Thu Feb 12 17:25:03 2026
$end
$version
	Icarus Verilog
$end
$timescale
	1ps
$end
$scope module bpsk_tx_tb $end
$var wire 16 ! bpsk_out [15:0] $end
$var parameter 32 " PHASE_STEP $end
$var reg 1 # bit_in $end
$var reg 1 $ clk $end
$var reg 1 % rst $end
$scope module dut $end
$var wire 1 # bit_in $end
$var wire 1 $ clk $end
$var wire 32 & phase_step [31:0] $end
$var wire 1 % rst $end
$var wire 16 ' sine [15:0] $end
$var wire 32 ( phase [31:0] $end
$var wire 1 ) mixed_out $end
$var wire 16 * cosine [15:0] $end
$var wire 16 + bpsk_out [15:0] $end
$var parameter 16 , An $end
$scope module PA $end
$var wire 1 $ clk $end
$var wire 32 - phase_step [31:0] $end
$var wire 1 % rst $end
$var reg 32 . phase [31:0] $end
$upscope $end
$scope module cordic_inst $end
$var wire 32 / angle [31:0] $end
$var wire 1 $ clock $end
$var wire 16 0 x_start [15:0] $end
$var wire 16 1 y_start [15:0] $end
$var wire 16 2 sine [15:0] $end
$var wire 2 3 quadrant [1:0] $end
$var wire 16 4 cosine [15:0] $end
$var parameter 32 5 WIDTH $end
$scope begin cordic_stage[0] $end
$var wire 17 6 x_shr [16:0] $end
$var wire 17 7 y_shr [16:0] $end
$var wire 1 8 z_sign $end
$var parameter 2 9 i $end
$upscope $end
$scope begin cordic_stage[1] $end
$var wire 1 : z_sign $end
$var wire 17 ; y_shr [16:0] $end
$var wire 17 < x_shr [16:0] $end
$var parameter 2 = i $end
$upscope $end
$scope begin cordic_stage[2] $end
$var wire 1 > z_sign $end
$var wire 17 ? y_shr [16:0] $end
$var wire 17 @ x_shr [16:0] $end
$var parameter 3 A i $end
$upscope $end
$scope begin cordic_stage[3] $end
$var wire 1 B z_sign $end
$var wire 17 C y_shr [16:0] $end
$var wire 17 D x_shr [16:0] $end
$var parameter 3 E i $end
$upscope $end
$scope begin cordic_stage[4] $end
$var wire 1 F z_sign $end
$var wire 17 G y_shr [16:0] $end
$var wire 17 H x_shr [16:0] $end
$var parameter 4 I i $end
$upscope $end
$scope begin cordic_stage[5] $end
$var wire 1 J z_sign $end
$var wire 17 K y_shr [16:0] $end
$var wire 17 L x_shr [16:0] $end
$var parameter 4 M i $end
$upscope $end
$scope begin cordic_stage[6] $end
$var wire 1 N z_sign $end
$var wire 17 O y_shr [16:0] $end
$var wire 17 P x_shr [16:0] $end
$var parameter 4 Q i $end
$upscope $end
$scope begin cordic_stage[7] $end
$var wire 1 R z_sign $end
$var wire 17 S y_shr [16:0] $end
$var wire 17 T x_shr [16:0] $end
$var parameter 4 U i $end
$upscope $end
$scope begin cordic_stage[8] $end
$var wire 1 V z_sign $end
$var wire 17 W y_shr [16:0] $end
$var wire 17 X x_shr [16:0] $end
$var parameter 5 Y i $end
$upscope $end
$scope begin cordic_stage[9] $end
$var wire 1 Z z_sign $end
$var wire 17 [ y_shr [16:0] $end
$var wire 17 \ x_shr [16:0] $end
$var parameter 5 ] i $end
$upscope $end
$scope begin cordic_stage[10] $end
$var wire 1 ^ z_sign $end
$var wire 17 _ y_shr [16:0] $end
$var wire 17 ` x_shr [16:0] $end
$var parameter 5 a i $end
$upscope $end
$scope begin cordic_stage[11] $end
$var wire 1 b z_sign $end
$var wire 17 c y_shr [16:0] $end
$var wire 17 d x_shr [16:0] $end
$var parameter 5 e i $end
$upscope $end
$scope begin cordic_stage[12] $end
$var wire 1 f z_sign $end
$var wire 17 g y_shr [16:0] $end
$var wire 17 h x_shr [16:0] $end
$var parameter 5 i i $end
$upscope $end
$scope begin cordic_stage[13] $end
$var wire 1 j z_sign $end
$var wire 17 k y_shr [16:0] $end
$var wire 17 l x_shr [16:0] $end
$var parameter 5 m i $end
$upscope $end
$scope begin cordic_stage[14] $end
$var wire 1 n z_sign $end
$var wire 17 o y_shr [16:0] $end
$var wire 17 p x_shr [16:0] $end
$var parameter 5 q i $end
$upscope $end
$upscope $end
$scope module mixer_DUT $end
$var wire 16 r carrier [15:0] $end
$var wire 1 $ clk $end
$var wire 16 s rx_in [15:0] $end
$var reg 32 t mixed_out [31:0] $end
$upscope $end
$scope module mod_inst $end
$var wire 1 # bit_in $end
$var wire 16 u carrier [15:0] $end
$var wire 1 $ clk $end
$var reg 16 v bpsk_out [15:0] $end
$upscope $end
$upscope $end
$upscope $end
$enddefinitions $end
$comment Show the parameter values. $end
$dumpall
b1110 q
b1101 m
b1100 i
b1011 e
b1010 a
b1001 ]
b1000 Y
b111 U
b110 Q
b101 M
b100 I
b11 E
b10 A
b1 =
b0 9
b10000 5
b100101111001000 ,
b101000111101011100001010010 "
$end
#0
$dumpvars
bx v
bx u
bx t
bx s
bx r
bx p
bx o
xn
bx l
bx k
xj
bx h
bx g
xf
bx d
bx c
xb
bx `
bx _
x^
bx \
bx [
xZ
bx X
bx W
xV
bx T
bx S
xR
bx P
bx O
xN
bx L
bx K
xJ
bx H
bx G
xF
bx D
bx C
xB
bx @
bx ?
x>
bx <
bx ;
x:
x8
bx 7
bx 6
bx 4
b0 3
bx 2
b0 1
b100101111001000 0
b0 /
b0 .
b101000111101011100001010010 -
bx +
bx *
x)
b0 (
bx '
b101000111101011100001010010 &
1%
0$
0#
bx !
$end
#10000
08
b0 7
b100101111001000 6
1$
#20000
0$
#30000
1:
b10010111100100 ;
b10010111100100 <
1$
#40000
0$
#50000
1>
b100101111001 ?
b1110001101011 @
1$
#60000
0$
#70000
1B
b100101111 C
b111101100100 D
1$
#80000
0$
#90000
0F
b11111111110100001 G
b11111000101 H
1$
#100000
0$
0%
#110000
1J
b1110 K
b1111100101 L
b101000111101011100001010010 (
b101000111101011100001010010 .
b101000111101011100001010010 /
1$
#120000
0$
#130000
0N
b11111111111110111 O
b111110011 P
b1010001111010111000010100100 (
b1010001111010111000010100100 .
b1010001111010111000010100100 /
1$
#140000
0$
#150000
0R
b11111111111111111 S
b11111001 T
b1111010111000010100011110110 (
b1111010111000010100011110110 .
b1111010111000010100011110110 /
1$
#160000
0$
#170000
1V
b0 W
b1111100 X
b10100011110101110000101001000 (
b10100011110101110000101001000 .
b10100011110101110000101001000 /
1$
#180000
0$
#190000
1Z
b0 [
b111110 \
0B
b11001100110011001100110011010 (
b11001100110011001100110011010 .
b11001100110011001100110011010 /
1$
#200000
0$
#210000
0>
1F
b110001101 G
b11110011111 H
1^
b0 _
b11111 `
b11110101110000101000111101100 (
b11110101110000101000111101100 .
b11110101110000101000111101100 /
1$
#220000
0$
#230000
1b
b0 c
b1111 d
b10001001 K
b1111011100 L
0F
1B
b100001001001 C
b110100000110 D
b100011110101110000101000111110 (
b100011110101110000101000111110 .
b100011110101110000101000111110 /
1$
#240000
0$
#250000
1F
b1101010100 G
b11100000111 H
b100000011 K
b1111000011 L
b110101 O
b111110000 P
0f
b11111111111111111 g
b111 h
b101000111101011100001010010000 (
b101000111101011100001010010000 .
b101000111101011100001010010000 /
1$
#260000
0$
#270000
0j
b0 k
b11 l
b11110 S
b11110111 T
b1110010 O
b111100101 P
b101110010 K
b1110011110 L
0F
0B
0:
b101110000101000111101011100010 (
b101110000101000111101011100010 .
b101110000101000111101011100010 /
1$
#280000
0$
#290000
1>
b1110001101011 ?
b100101111001 @
1F
b10011110101 G
b10111111110 H
b111100010 K
b1101101001 L
b10101010 O
b111010101 P
b111101 S
b11110001 T
b10000 W
b1111011 X
1n
b0 o
b1 p
b110011001100110011001100110100 (
b110011001100110011001100110100 .
b110011001100110011001100110100 /
1$
#300000
0$
#310000
b10 '
b10 2
b111110011001100 *
b111110011001100 4
b111110011001100 r
b111110011001100 u
b111 [
b111101 \
b11111 W
b1111000 X
b1011000 S
b11101001 T
b11100011 O
b110111100 P
b1001001010 K
b1100100110 L
0F
1B
b110100000110 C
b100001001001 D
b111000010100011110101110000110 (
b111000010100011110101110000110 .
b111000010100011110101110000110 /
1$
#320000
0$
#330000
0B
1F
b10111111110 G
b10011110101 H
0J
b1010101010 K
b1011010111 L
b100011000 O
b110011100 P
b1110101 S
b11011100 T
0V
b101101 W
b1110100 X
b1111 [
b111100 \
0^
b11 _
b11110 `
b111101011100001010001111011000 (
b111101011100001010001111011000 .
b111101011100001010001111011000 /
b1000001100110100 !
b1000001100110100 +
b1000001100110100 s
b1000001100110100 v
1$
#340000
0$
#350000
b1 3
0)
b1 c
b111 _
0Z
b10110 [
b111010 \
b111011 W
b1101101 X
b10001111 S
b11001100 T
1N
b101100000 O
b101100001 P
b1011010111 K
b1010101010 L
b11100000111 G
b1101010100 H
0>
b1000010100011110101110000101010 (
b1000010100011110101110000101010 .
b1000010100011110101110000101010 /
b11000011001010011011110101110000 t
1$
#360000
0$
#370000
1B
b111101100100 C
b100101111 D
0F
1J
b1101101001 K
b111100010 L
0N
b101110110 O
b101001001 P
1R
b10101101 S
b10110011 T
b1001000 W
b1100101 X
b11101 [
b110110 \
1^
b1011 _
b11100 `
0b
b11 c
b0 g
b1000111101011100001010001111100 (
b1000111101011100001010001111100 .
b1000111101011100001010001111100 /
b100101111001000 7
b0 6
1$
#380000
0$
#390000
1j
1f
b1 g
1b
b101 c
b1110 d
b1111 _
b11011 `
b100100 [
b110010 \
1V
b1010110 W
b1011010 X
0R
b10111101 S
b10100010 T
1N
b110101101 O
b11111110 P
b1110011110 K
b101110010 L
1F
b11110011111 G
b110001101 H
1:
b11101101000011100 <
b1001100110011001100110011001110 (
b1001100110011001100110011001110 .
b1001100110011001100110011001110 /
1$
#400000
0$
#410000
1>
b11111011010000111 @
0B
0F
b1111000011 K
b100000011 L
b111001001 O
b11000111 P
1R
b11010100 S
b10000010 T
0V
b1011111 W
b1010000 X
1Z
b101010 [
b101101 \
0^
b10010 _
b11001 `
0b
b111 c
b1101 d
0f
b10 g
0j
0n
b1010001111010111000010100100000 (
b1010001111010111000010100100000 .
b1010001111010111000010100100000 /
1$
#420000
0$
#430000
b111110100101 '
b111110100101 2
b111101111001110 *
b111101111001110 4
b111101111001110 r
b111101111001110 u
b1 k
b11 g
b110 h
b1001 c
b1100 d
1^
b10101 _
b10110 `
0Z
b101111 [
b100111 \
1V
b1101001 W
b1000010 X
b11100011 S
b1100111 T
b111011101 O
b10010000 P
b1111011100 K
b10001001 L
1F
b11111000101 G
b11111111110100001 H
1B
b11111111011010000 D
b1010111000010100011110101110010 (
b1010111000010100011110101110010 .
b1010111000010100011110101110010 /
1$
#440000
0$
#450000
0B
0F
b1011110 H
b1111100101 K
b1110 L
b111101011 O
b1010100 P
b11101101 S
b1001100 T
b1110001 W
b110100 X
1Z
b110100 [
b100001 \
0^
b11000 _
b10011 `
1b
b1010 c
b1011 d
b100 g
b1111100000101 '
b1111100000101 2
b111100011100010 *
b111100011100010 4
b111100011100010 r
b111100011100010 u
b1011100001010001111010111000100 (
b1011100001010001111010111000100 .
b1011100001010001111010111000100 /
b1000010000110010 !
b1000010000110010 +
b1000010000110010 s
b1000010000110010 v
b11000011101001011000111111011000 t
1$
#460000
0$
#470000
b10110111110001 '
b10110111110001 2
b111010000001010 *
b111010000001010 4
b111010000001010 r
b111010000001010 u
1n
1j
b10 k
1f
b101 g
b101 h
0b
b1100 c
b1001 d
1^
b11010 _
b10000 `
b111000 [
b11010 \
0V
b1110110 W
b100111 X
b11110101 S
b101110 T
b111110010 O
b10110 P
0J
b11111111111110001 L
1F
b11110011111 G
b11111111001110010 H
0>
b1100001010001111010111000010110 (
b1100001010001111010111000010110 .
b1100001010001111010111000010110 /
b11000101100010100010010000100100 t
b1000011100011110 !
b1000011100011110 +
b1000011100011110 s
b1000011100011110 v
1$
#480000
0$
#490000
1B
b110100000110 C
b11111011110110110 D
0F
b1111011100 K
b11111111101110110 L
0N
b11111111111101001 P
b11111001 S
b1111 T
b1111010 W
b10111 X
0Z
b111011 [
b10011 \
0^
b11100 _
b1101 `
b1101 c
b1000 d
0f
b110 g
b100 h
0j
b10 l
0n
b1 o
b11110000011100 '
b11110000011100 2
b110110101011110 *
b110110101011110 4
b110110101011110 r
b110110101011110 u
b1100110011001100110011001101000 (
b1100110011001100110011001101000 .
b1100110011001100110011001101000 /
b1000101111110110 !
b1000101111110110 +
b1000101111110110 s
b1000101111110110 v
b11001001001101001101111100101100 t
1$
#500000
0$
#510000
b100100101011001 '
b100100101011001 2
b110010011111000 *
b110010011111000 4
b110010011111000 r
b110010011111000 u
b11 k
1b
b1110 c
b110 d
1^
b11101 _
b1001 `
b111101 [
b1011 \
b1111100 W
b1000 X
0R
b11111111111110000 T
b111101011 O
b11111111110101011 P
b1111000011 K
b11111111011111100 L
1F
b11100000111 G
b11111110010101011 H
0:
b1101011100001010001111010111010 (
b1101011100001010001111010111010 .
b1101011100001010001111010111010 /
b11001110011011010010001001010100 t
b1001001010100010 !
b1001001010100010 +
b1001001010100010 s
b1001001010100010 v
1$
#520000
0$
#530000
1>
b100101111001 ?
b11110001110010101 @
0B
0F
b1110011110 K
b11111111010001101 L
b111011101 O
b11111111101101111 P
b11110101 S
b11111111111010001 T
1V
b11111111111110111 X
b111110 [
b100 \
b11110 _
b101 `
b100 d
b111 g
b11 h
1n
b101010101101100 '
b101010101101100 2
b101101011111001 *
b101101011111001 4
b101101011111001 r
b101101011111001 u
b1110000101000111101011100001100 (
b1110000101000111101011100001100 .
b1110000101000111101011100001100 /
b1001101100001000 !
b1001101100001000 +
b1001101100001000 s
b1001101100001000 v
b11010100110111010101010011110000 t
1$
#540000
0$
#550000
b110000000100010 '
b110000000100010 2
b100111110001111 *
b100111110001111 4
b100111110001111 r
b100111110001111 u
1j
b1 l
1f
b10 h
0b
b1111 c
b10 d
0^
b11111 _
b1 `
1Z
b11111111111111011 \
b1111010 W
b11111111111101000 X
b11101101 S
b11111111110110011 T
b111001001 O
b11111111100111000 P
b1101101001 K
b11111111000011101 L
b10111111110 G
b11111101100001010 H
1B
b100001001001 C
b11111001011111001 D
b1110101110000101000111101011110 (
b1110101110000101000111101011110 .
b1110101110000101000111101011110 /
b11011100000111101001101011001000 t
b1010010100000111 !
b1010010100000111 +
b1010010100000111 s
b1010010100000111 v
1$
#560000
0$
#570000
1F
b10011110101 G
b11111101000000001 H
1J
b1011010111 K
b11111110101010101 L
b110101101 O
b11111111100000001 P
b11100011 S
b11111111110011000 T
b1110110 W
b11111111111011000 X
b111101 [
b11111111111110100 \
1^
b11111111111111110 `
1b
b0 d
b1 h
0n
b0 p
b110100101100000 '
b110100101100000 2
b100001011011100 *
b100001011011100 4
b100001011011100 r
b100001011011100 u
1)
b1111010111000010100011110110000 (
b1111010111000010100011110110000 .
b1111010111000010100011110110000 /
b1011000001110001 !
b1011000001110001 +
b1011000001110001 s
b1011000001110001 v
b11100011101110100101011111101001 t
1$
#580000
0$
#590000
b10 3
0)
b111000011101011 '
b111000011101011 2
b11010100100010 *
b11010100100010 4
b11010100100010 r
b11010100100010 u
b0 l
0f
b0 h
0b
b11111111111111111 d
0^
b11110 _
b11111111111111010 `
b111011 [
b11111111111101100 \
0V
b1110001 W
b11111111111001011 X
b11010100 S
b11111111101111101 T
1N
b101110110 O
b11111111010110110 P
b1010101010 K
b11111110100101000 L
0F
0B
b10000000000000000000000000000010 (
b10000000000000000000000000000010 .
b10000000000000000000000000000010 /
b11101011001110001100001100011100 t
b1011110100100100 !
b1011110100100100 +
b1011110100100100 s
b1011110100100100 v
1$
#600000
0$
#610000
0>
1F
b1101010100 G
b11111100011111000 H
0J
b1001001010 K
b11111110011011001 L
0N
b101100000 O
b11111111010011110 P
1R
b10111101 S
b11111111101011101 T
b1101001 W
b11111111110111101 X
0Z
b111000 [
b11111111111100101 \
b11101 _
b11111111111110110 `
1b
b11111111111111101 d
1f
b11111111111111111 h
0j
1n
b111011010110100 '
b111011010110100 2
b10011010001100 *
b10011010001100 4
b10011010001100 r
b10011010001100 u
18
b10000101000111101011100001010100 (
b10000101000111101011100001010100 .
b10000101000111101011100001010100 /
b11011010000111000 7
b1100101011011110 !
b1100101011011110 +
b1100101011011110 s
b1100101011011110 v
b11110010000111111001001011001000 t
1$
#620000
0$
#630000
b111101010010110 '
b111101010010110 2
b1011101011101 *
b1011101011101 4
b1011101011101 r
b1011101011101 u
1j
b11111111111111111 l
0f
b11111111111111110 h
0b
b1110 c
b11111111111111011 d
1^
b11100 _
b11111111111110010 `
b110100 [
b11111111111011110 \
1V
b1011111 W
b11111111110101111 X
0R
b10101101 S
b11111111101001100 T
1N
b100011000 O
b11111111001100011 P
b111100010 K
b11111110010010110 L
0F
1B
b100101111 C
b11111000010011011 D
1:
b11101101000011100 ;
b10001010001111010111000010100110 (
b10001010001111010111000010100110 .
b10001010001111010111000010100110 /
b11110111111111111110010101101000 t
b1101100101110100 !
b1101100101110100 +
b1101100101110100 s
b1101100101110100 v
1$
#640000
0$
#650000
1>
b11111011010000111 ?
1F
b110001101 G
b11111100001100000 H
b101110010 K
b11111110001100001 L
b11100011 O
b11111111001000011 P
1R
b10001111 S
b11111111100110011 T
0V
b1010110 W
b11111111110100101 X
1Z
b101111 [
b11111111111011000 \
0^
b11010 _
b11111111111101111 `
b11111111111111001 d
b11111111111111101 h
0j
0n
b11111111111111111 p
b111110010001101 '
b111110010001101 2
b11111010111 *
b11111010111 4
b11111010111 r
b11111010111 u
b10001111010111000010100011111000 (
b10001111010111000010100011111000 .
b10001111010111000010100011111000 /
b1110100010100011 !
b1110100010100011 +
b1110100010100011 s
b1110100010100011 v
b11111100011110110110101100100100 t
1$
#660000
0$
#670000
1)
b1111100000101001 *
b1111100000101001 4
b1111100000101001 r
b1111100000101001 u
b11111111111111110 l
1f
b11111111111111100 h
1b
b1101 c
b11111111111110111 d
1^
b11000 _
b11111111111101100 `
0Z
b101010 [
b11111111111010010 \
1V
b1001000 W
b11111111110011010 X
b1110101 S
b11111111100100011 T
b10101010 O
b11111111000101010 P
b100000011 K
b11111110000111100 L
0F
b11111111011010000 C
b10010100011110101110000101001010 (
b10010100011110101110000101001010 .
b10010100011110101110000101001010 /
b11111111010010001101010111100101 t
b1111100000101001 !
b1111100000101001 +
b1111100000101001 s
b1111100000101001 v
1$
#680000
0$
#690000
0B
b1011110 G
b11111100000111010 H
b10001001 K
b11111110000100011 L
b1110010 O
b11111111000011010 P
b1011000 S
b11111111100010110 T
b111011 W
b11111111110010010 X
1Z
b100100 [
b11111111111001101 \
0^
b10101 _
b11111111111101001 `
b1100 c
b11111111111110110 d
b110 g
b11111111111111011 h
1n
b111101010010010 '
b111101010010010 2
b1110100010100011 *
b1110100010100011 4
b1110100010100011 r
b1110100010100011 u
b10011001100110011001100110011100 (
b10011001100110011001100110011100 .
b10011001100110011001100110011100 /
b11111010111 !
b11111010111 +
b11111010111 s
b11111010111 v
b1111010111011010010001 t
1$
#700000
0$
#710000
b111011010101110 '
b111011010101110 2
b1101100101110100 *
b1101100101110100 4
b1101100101110100 r
b1101100101110100 u
1j
b11111111111111101 l
0b
b1010 c
b11111111111110100 d
1^
b10010 _
b11111111111100110 `
b11101 [
b11111111111001001 \
b101101 W
b11111111110001011 X
b111101 S
b11111111100001110 T
b110101 O
b11111111000001111 P
1J
b11111111111110001 K
b11111110000011010 L
1F
b11111111001110010 G
b11111100001100000 H
0>
b10011110101110000101000111101110 (
b10011110101110000101000111101110 .
b10011110101110000101000111101110 /
b11111111010010001101010111100101 t
b1011101011101 !
b1011101011101 +
b1011101011101 s
b1011101011101 v
1$
#720000
0$
#730000
1B
b11111011110110110 C
b11111001011111001 D
0F
b11111111101110110 K
b11111110000100011 L
0N
b1000 O
b11111111000001100 P
b11110 S
b11111111100001000 T
0V
b11111 W
b11111111110000111 X
b10110 [
b11111111111000101 \
0^
b1111 _
b11111111111100100 `
1b
b1001 c
b11111111111110011 d
0f
b101 g
b11111111111111010 h
0n
b11111111111111110 p
b111000011101001 '
b111000011101001 2
b1100101011011110 *
b1100101011011110 4
b1100101011011110 r
b1100101011011110 u
0)
b10100011110101110000101001000000 (
b10100011110101110000101001000000 .
b10100011110101110000101001000000 /
b10011010001100 !
b10011010001100 +
b10011010001100 s
b10011010001100 v
b11111100011110110110101100100100 t
1$
#740000
0$
#750000
b110100101011100 '
b110100101011100 2
b1011110100100100 *
b1011110100100100 4
b1011110100100100 r
b1011110100100100 u
b10 k
1f
b100 g
b11111111111111001 h
b111 c
b11111111111110010 d
b1011 _
b11111111111100011 `
0Z
b1111 [
b11111111111000011 \
b10000 W
b11111111110000100 X
0R
b0 S
b11111111100000110 T
b11111111111001010 O
b11111111000001111 P
b11111111011111100 K
b11111110000111100 L
1F
b11111110010101011 G
b11111100011111000 H
b10101000111101011100001010010010 (
b10101000111101011100001010010010 .
b10101000111101011100001010010010 /
b11110111111111111110010101101000 t
b11010100100010 !
b11010100100010 +
b11010100100010 s
b11010100100010 v
1$
#760000
0$
#770000
0:
0B
0F
b11111111010001110 K
b11111110001100001 L
b11111111110001101 O
b11111111000011010 P
b11111111111100001 S
b11111111100001000 T
1V
b11111111111111111 W
b11111111110000011 X
b111 [
b11111111111000010 \
1^
b111 _
b11111111111100001 `
0b
b101 c
b11111111111110001 d
b11 g
0j
b11111111111111100 l
1n
b110000000101000 '
b110000000101000 2
b1011000001110001 *
b1011000001110001 4
b1011000001110001 r
b1011000001110001 u
b10101110000101000111101011100100 (
b10101110000101000111101011100100 .
b10101110000101000111101011100100 /
b100001011011100 !
b100001011011100 +
b100001011011100 s
b100001011011100 v
b11110010000111111001001011001000 t
1$
#780000
0$
#790000
b101010101101010 '
b101010101101010 2
b1010010100000111 *
b1010010100000111 4
b1010010100000111 r
b1010010100000111 u
1j
b1 k
b10 g
b11111111111111000 h
1b
b11 c
b11111111111110000 d
b11 _
1Z
b11111111111111111 [
b11111111111000001 \
b11111111111101111 W
b11111111110000100 X
b11111111111000010 S
b11111111100001110 T
b11111111101010101 O
b11111111000101010 P
b11111111000011101 K
b11111110010010110 L
1F
b11111101100001010 G
b11111101000000001 H
1>
b11110001110010101 ?
b11111011010000111 @
b10110011001100110011001100110110 (
b10110011001100110011001100110110 .
b10110011001100110011001100110110 /
b11101011001110001100001100011100 t
b100111110001111 !
b100111110001111 +
b100111110001111 s
b100111110001111 v
1$
#800000
0$
#810000
1B
b11111001011111001 C
b11111011110110110 D
0F
b11111110110110101 K
b11111110011011001 L
b11111111100011100 O
b11111111001000011 P
b11111111110100111 S
b11111111100010110 T
b11111111111100000 W
b11111111110000111 X
b11111111111111000 [
b11111111111000010 \
b11111111111111111 _
b11111111111100000 `
0b
b1 c
0f
b1 g
0n
b0 o
b100100101011111 '
b100100101011111 2
b1001101100001000 *
b1001101100001000 4
b1001101100001000 r
b1001101100001000 u
1)
b10111000010100011110101110001000 (
b10111000010100011110101110001000 .
b10111000010100011110101110001000 /
b101101011111001 !
b101101011111001 +
b101101011111001 s
b101101011111001 v
b11100011101110100101011111101001 t
1$
#820000
0$
#830000
0)
b11110000100000 '
b11110000100000 2
b1001001010100010 *
b1001001010100010 4
b1001001010100010 r
b1001001010100010 u
1n
b0 k
1f
b0 g
1b
b11111111111111111 c
0^
b11111111111111100 _
b11111111111100001 `
b11111111111110000 [
b11111111111000011 \
0V
b11111111111010010 W
b11111111110001011 X
b11111111110001010 S
b11111111100100011 T
b11111111011100111 O
b11111111001100011 P
0J
b11111110101010101 K
b11111110100101000 L
1F
b11111101000000001 G
b11111101100001010 H
0B
b10111101011100001010001111011010 (
b10111101011100001010001111011010 .
b10111101011100001010001111011010 /
b11011100000111101001101011001000 t
b110010011111000 !
b110010011111000 +
b110010011111000 s
b110010011111000 v
1$
#840000
0$
#850000
b11 3
0>
b11111100011111000 G
b11111110010101011 H
b11111110100101000 K
b11111110101010101 L
1N
b11111111010011111 O
b11111111010011110 P
b11111111101110000 S
b11111111100110011 T
b11111111111000100 W
b11111111110010010 X
0Z
b11111111111101001 [
b11111111111000101 \
b11111111111111000 _
b11111111111111110 c
0f
0j
b10110111110011 '
b10110111110011 2
b1000101111110110 *
b1000101111110110 4
b1000101111110110 r
b1000101111110110 u
b11000010100011110101110000101100 (
b11000010100011110101110000101100 .
b11000010100011110101110000101100 /
b110110101011110 !
b110110101011110 +
b110110101011110 s
b110110101011110 v
b11010100110111010101010011110000 t
1$
#860000
0$
#870000
b1111100001001 '
b1111100001001 2
b1000011100011110 *
b1000011100011110 4
b1000011100011110 r
b1000011100011110 u
b11111111111111111 g
0b
b11111111111111100 c
1^
b11111111111110100 _
b11111111111100011 `
b11111111111100010 [
b11111111111001001 \
b11111111110110111 W
b11111111110011010 X
1R
b11111111101010010 S
b11111111101001100 T
0N
b11111111010001001 O
b11111111010110110 P
1J
b11111110010010110 K
b11111111000011101 L
0F
1B
b11111000010011011 C
b11111111011010000 D
b11000111101011100001010001111110 (
b11000111101011100001010001111110 .
b11000111101011100001010001111110 /
b11001110011011010010001001010100 t
b111010000001010 !
b111010000001010 +
b111010000001010 s
b111010000001010 v
b0 7
b100101111001000 6
1$
#880000
0$
#890000
1:
b10010111100100 <
1F
b11111100001100000 G
b11111111001110010 H
b11111110001100001 K
b11111111010001110 L
1N
b11111111001010010 O
b11111111100000001 P
0R
b11111111101000010 S
b11111111101011101 T
1V
b11111111110101001 W
b11111111110100101 X
b11111111111011011 [
b11111111111001101 \
b11111111111110000 _
b11111111111100100 `
1b
b11111111111111010 c
b11111111111110001 d
1f
b11111111111111110 g
1j
b11111111111111111 k
b11111111111111111 o
b111110100101 '
b111110100101 2
b1000010000110010 *
b1000010000110010 4
b1000010000110010 r
b1000010000110010 u
b11001100110011001100110011010000 (
b11001100110011001100110011010000 .
b11001100110011001100110011010000 /
b111100011100010 !
b111100011100010 +
b111100011100010 s
b111100011100010 v
b11001001001101001101111100101100 t
1$
#900000
0$
#910000
b0 '
b0 2
b1000001100110001 *
b1000001100110001 4
b1000001100110001 r
b1000001100110001 u
0n
0j
0f
b11111111111111101 g
0b
b11111111111111000 c
b11111111111110010 d
0^
b11111111111101101 _
b11111111111100110 `
1Z
b11111111111010101 [
b11111111111010010 \
0V
b11111111110100000 W
b11111111110101111 X
1R
b11111111100101011 S
b11111111101111101 T
b11111111000110110 O
b11111111100111000 P
b11111110000111100 K
b11111111011111100 L
0F
0B
1>
b100101111001 @
b11010001111010111000010100100010 (
b11010001111010111000010100100010 .
b11010001111010111000010100100010 /
b11000101100010100010010000100100 t
b111101111001110 !
b111101111001110 +
b111101111001110 s
b111101111001110 v
1$
#920000
0$
#930000
1B
b100101111 D
1F
b11111100000111010 G
b1011110 H
b11111110000100011 K
b11111111101110110 L
b11111111000100010 O
b11111111101101110 P
b11111111100011100 S
b11111111110011000 T
1V
b11111111110010110 W
b11111111110111101 X
0Z
b11111111111010000 [
b11111111111011000 \
1^
b11111111111101010 _
b11111111111101001 `
b11111111111110110 c
b11111111111110011 d
b11111111111111100 g
b11111111111111001 h
b11111111111111110 k
b1111000001011011 '
b1111000001011011 2
b1000010000110010 *
b1000010000110010 4
b1000010000110010 r
b1000010000110010 u
b11010111000010100011110101110100 (
b11010111000010100011110101110100 .
b11010111000010100011110101110100 /
b111110011001111 !
b111110011001111 +
b111110011001111 s
b111110011001111 v
b11000011101001000001110001101110 t
1$
#940000
0$
#950000
b1110000011110111 '
b1110000011110111 2
b1000011100100010 *
b1000011100100010 4
b1000011100100010 r
b1000011100100010 u
b11111111111111011 g
1b
b11111111111110101 c
b11111111111110100 d
0^
b11111111111100111 _
b11111111111101100 `
1Z
b11111111111001011 [
b11111111111011110 \
b11111111110001110 W
b11111111111001011 X
b11111111100010010 S
b11111111110110011 T
b11111111000010100 O
b11111111110101011 P
b11111110000011010 K
b11111111111110001 L
0F
b11111111110100001 H
0B
b11011100001010001111010111000110 (
b11011100001010001111010111000110 .
b11011100001010001111010111000110 /
b111101111001110 !
b111101111001110 +
b111101111001110 s
b111101111001110 v
1$
#960000
0$
#970000
0>
1F
b11111100001100000 G
b110001101 H
0J
b1110 L
b11111111000001101 O
b11111111111101001 P
b11111111100001010 S
b11111111111010001 T
0V
b11111111110001001 W
b11111111111011000 X
b11111111111000111 [
b11111111111100101 \
1^
b11111111111100101 _
b11111111111101111 `
0b
b11111111111110011 c
b11111111111110110 d
1f
b11111111111111010 g
b11111111111111010 h
1j
b11111111111111101 k
1n
b1101001000001101 '
b1101001000001101 2
b1000101111111001 *
b1000101111111001 4
b1000101111111001 r
b1000101111111001 u
b11100001010001111010111000011000 (
b11100001010001111010111000011000 .
b11100001010001111010111000011000 /
b111100011011110 !
b111100011011110 +
b111100011011110 s
b111100011011110 v
b11000101100011000001001101011100 t
1$
#980000
0$
#990000
b1100001111100000 '
b1100001111100000 2
b1001001010100110 *
b1001001010100110 4
b1001001010100110 r
b1001001010100110 u
0n
b11111111111111110 o
0j
b11111111111111101 l
0f
b11111111111111001 g
b11111111111111011 h
b11111111111110010 c
b11111111111110111 d
0^
b11111111111100011 _
b11111111111110010 `
0Z
b11111111111000100 [
b11111111111101100 \
b11111111110000101 W
b11111111111101000 X
b11111111100000110 S
b11111111111110000 T
0N
b10111 P
b11111110000100011 K
b10001001 L
0F
1B
b11111001011111001 C
b100001001001 D
b11100110011001100110011001101010 (
b11100110011001100110011001101010 .
b11100110011001100110011001101010 /
b11001001001110000001100111101110 t
b111010000000111 !
b111010000000111 +
b111010000000111 s
b111010000000111 v
1$
#1000000
0$
