bpsk.vcd
$date
	Thu Feb 12 16:48:18 2026
$end
$version
	Icarus Verilog
$end
$timescale
	1ps
$end
$scope module bpsk_tx_tb $end
$var wire 16 ! bpsk_out [15:0] $end
$var parameter 32 " PHASE_STEP $end
$var reg 1 # bit_in $end
$var reg 1 $ clk $end
$var reg 1 % rst $end
$scope module dut $end
$var wire 1 # bit_in $end
$var wire 1 $ clk $end
$var wire 32 & phase_step [31:0] $end
$var wire 1 % rst $end
$var wire 16 ' sine [15:0] $end
$var wire 32 ( phase [31:0] $end
$var wire 16 ) cosine [15:0] $end
$var wire 16 * bpsk_out [15:0] $end
$var parameter 16 + An $end
$scope module PA $end
$var wire 1 $ clk $end
$var wire 32 , phase_step [31:0] $end
$var wire 1 % rst $end
$var reg 32 - phase [31:0] $end
$upscope $end
$scope module cordic_inst $end
$var wire 32 . angle [31:0] $end
$var wire 1 $ clock $end
$var wire 16 / x_start [15:0] $end
$var wire 16 0 y_start [15:0] $end
$var wire 16 1 sine [15:0] $end
$var wire 2 2 quadrant [1:0] $end
$var wire 16 3 cosine [15:0] $end
$var parameter 32 4 WIDTH $end
$scope begin cordic_stage[0] $end
$var wire 17 5 x_shr [16:0] $end
$var wire 17 6 y_shr [16:0] $end
$var wire 1 7 z_sign $end
$var parameter 2 8 i $end
$upscope $end
$scope begin cordic_stage[1] $end
$var wire 1 9 z_sign $end
$var wire 17 : y_shr [16:0] $end
$var wire 17 ; x_shr [16:0] $end
$var parameter 2 < i $end
$upscope $end
$scope begin cordic_stage[2] $end
$var wire 1 = z_sign $end
$var wire 17 > y_shr [16:0] $end
$var wire 17 ? x_shr [16:0] $end
$var parameter 3 @ i $end
$upscope $end
$scope begin cordic_stage[3] $end
$var wire 1 A z_sign $end
$var wire 17 B y_shr [16:0] $end
$var wire 17 C x_shr [16:0] $end
$var parameter 3 D i $end
$upscope $end
$scope begin cordic_stage[4] $end
$var wire 1 E z_sign $end
$var wire 17 F y_shr [16:0] $end
$var wire 17 G x_shr [16:0] $end
$var parameter 4 H i $end
$upscope $end
$scope begin cordic_stage[5] $end
$var wire 1 I z_sign $end
$var wire 17 J y_shr [16:0] $end
$var wire 17 K x_shr [16:0] $end
$var parameter 4 L i $end
$upscope $end
$scope begin cordic_stage[6] $end
$var wire 1 M z_sign $end
$var wire 17 N y_shr [16:0] $end
$var wire 17 O x_shr [16:0] $end
$var parameter 4 P i $end
$upscope $end
$scope begin cordic_stage[7] $end
$var wire 1 Q z_sign $end
$var wire 17 R y_shr [16:0] $end
$var wire 17 S x_shr [16:0] $end
$var parameter 4 T i $end
$upscope $end
$scope begin cordic_stage[8] $end
$var wire 1 U z_sign $end
$var wire 17 V y_shr [16:0] $end
$var wire 17 W x_shr [16:0] $end
$var parameter 5 X i $end
$upscope $end
$scope begin cordic_stage[9] $end
$var wire 1 Y z_sign $end
$var wire 17 Z y_shr [16:0] $end
$var wire 17 [ x_shr [16:0] $end
$var parameter 5 \ i $end
$upscope $end
$scope begin cordic_stage[10] $end
$var wire 1 ] z_sign $end
$var wire 17 ^ y_shr [16:0] $end
$var wire 17 _ x_shr [16:0] $end
$var parameter 5 ` i $end
$upscope $end
$scope begin cordic_stage[11] $end
$var wire 1 a z_sign $end
$var wire 17 b y_shr [16:0] $end
$var wire 17 c x_shr [16:0] $end
$var parameter 5 d i $end
$upscope $end
$scope begin cordic_stage[12] $end
$var wire 1 e z_sign $end
$var wire 17 f y_shr [16:0] $end
$var wire 17 g x_shr [16:0] $end
$var parameter 5 h i $end
$upscope $end
$scope begin cordic_stage[13] $end
$var wire 1 i z_sign $end
$var wire 17 j y_shr [16:0] $end
$var wire 17 k x_shr [16:0] $end
$var parameter 5 l i $end
$upscope $end
$scope begin cordic_stage[14] $end
$var wire 1 m z_sign $end
$var wire 17 n y_shr [16:0] $end
$var wire 17 o x_shr [16:0] $end
$var parameter 5 p i $end
$upscope $end
$upscope $end
$scope module mod_inst $end
$var wire 1 # bit_in $end
$var wire 16 q carrier [15:0] $end
$var wire 1 $ clk $end
$var reg 16 r bpsk_out [15:0] $end
$upscope $end
$upscope $end
$upscope $end
$enddefinitions $end
$comment Show the parameter values. $end
$dumpall
b1110 p
b1101 l
b1100 h
b1011 d
b1010 `
b1001 \
b1000 X
b111 T
b110 P
b101 L
b100 H
b11 D
b10 @
b1 <
b0 8
b10000 4
b100101111001000 +
b101000111101011100001010010 "
$end
#0
$dumpvars
bx r
bx q
bx o
bx n
xm
bx k
bx j
xi
bx g
bx f
xe
bx c
bx b
xa
bx _
bx ^
x]
bx [
bx Z
xY
bx W
bx V
xU
bx S
bx R
xQ
bx O
bx N
xM
bx K
bx J
xI
bx G
bx F
xE
bx C
bx B
xA
bx ?
bx >
x=
bx ;
bx :
x9
x7
bx 6
bx 5
bx 3
b0 2
bx 1
b0 0
b100101111001000 /
b0 .
b0 -
b101000111101011100001010010 ,
bx *
bx )
b0 (
bx '
b101000111101011100001010010 &
1%
0$
0#
bx !
$end
#10000
07
b0 6
b100101111001000 5
1$
#20000
0$
#30000
19
b10010111100100 :
b10010111100100 ;
1$
#40000
0$
#50000
1=
b100101111001 >
b1110001101011 ?
1$
#60000
0$
#70000
1A
b100101111 B
b111101100100 C
1$
#80000
0$
#90000
0E
b11111111110100001 F
b11111000101 G
1$
#100000
0$
0%
#110000
1I
b1110 J
b1111100101 K
b101000111101011100001010010 (
b101000111101011100001010010 -
b101000111101011100001010010 .
1$
#120000
0$
#130000
0M
b11111111111110111 N
b111110011 O
b1010001111010111000010100100 (
b1010001111010111000010100100 -
b1010001111010111000010100100 .
1$
#140000
0$
#150000
0Q
b11111111111111111 R
b11111001 S
b1111010111000010100011110110 (
b1111010111000010100011110110 -
b1111010111000010100011110110 .
1$
#160000
0$
#170000
1U
b0 V
b1111100 W
b10100011110101110000101001000 (
b10100011110101110000101001000 -
b10100011110101110000101001000 .
1$
#180000
0$
#190000
1Y
b0 Z
b111110 [
0A
b11001100110011001100110011010 (
b11001100110011001100110011010 -
b11001100110011001100110011010 .
1$
#200000
0$
#210000
0=
1E
b110001101 F
b11110011111 G
1]
b0 ^
b11111 _
b11110101110000101000111101100 (
b11110101110000101000111101100 -
b11110101110000101000111101100 .
1$
#220000
0$
#230000
1a
b0 b
b1111 c
b10001001 J
b1111011100 K
0E
1A
b100001001001 B
b110100000110 C
b100011110101110000101000111110 (
b100011110101110000101000111110 -
b100011110101110000101000111110 .
1$
#240000
0$
#250000
1E
b1101010100 F
b11100000111 G
b100000011 J
b1111000011 K
b110101 N
b111110000 O
0e
b11111111111111111 f
b111 g
b101000111101011100001010010000 (
b101000111101011100001010010000 -
b101000111101011100001010010000 .
1$
#260000
0$
#270000
0i
b0 j
b11 k
b11110 R
b11110111 S
b1110010 N
b111100101 O
b101110010 J
b1110011110 K
0E
0A
09
b101110000101000111101011100010 (
b101110000101000111101011100010 -
b101110000101000111101011100010 .
1$
#280000
0$
#290000
1=
b1110001101011 >
b100101111001 ?
1E
b10011110101 F
b10111111110 G
b111100010 J
b1101101001 K
b10101010 N
b111010101 O
b111101 R
b11110001 S
b10000 V
b1111011 W
1m
b0 n
b1 o
b110011001100110011001100110100 (
b110011001100110011001100110100 -
b110011001100110011001100110100 .
1$
#300000
0$
#310000
b10 '
b10 1
b111110011001100 )
b111110011001100 3
b111110011001100 q
b111 Z
b111101 [
b11111 V
b1111000 W
b1011000 R
b11101001 S
b11100011 N
b110111100 O
b1001001010 J
b1100100110 K
0E
1A
b110100000110 B
b100001001001 C
b111000010100011110101110000110 (
b111000010100011110101110000110 -
b111000010100011110101110000110 .
1$
#320000
0$
#330000
0A
1E
b10111111110 F
b10011110101 G
0I
b1010101010 J
b1011010111 K
b100011000 N
b110011100 O
b1110101 R
b11011100 S
0U
b101101 V
b1110100 W
b1111 Z
b111100 [
0]
b11 ^
b11110 _
b111101011100001010001111011000 (
b111101011100001010001111011000 -
b111101011100001010001111011000 .
b1000001100110100 !
b1000001100110100 *
b1000001100110100 r
1$
#340000
0$
#350000
b1 2
b1 b
b111 ^
0Y
b10110 Z
b111010 [
b111011 V
b1101101 W
b10001111 R
b11001100 S
1M
b101100000 N
b101100001 O
b1011010111 J
b1010101010 K
b11100000111 F
b1101010100 G
0=
b1000010100011110101110000101010 (
b1000010100011110101110000101010 -
b1000010100011110101110000101010 .
1$
#360000
0$
#370000
1A
b111101100100 B
b100101111 C
0E
1I
b1101101001 J
b111100010 K
0M
b101110110 N
b101001001 O
1Q
b10101101 R
b10110011 S
b1001000 V
b1100101 W
b11101 Z
b110110 [
1]
b1011 ^
b11100 _
0a
b11 b
b0 f
b1000111101011100001010001111100 (
b1000111101011100001010001111100 -
b1000111101011100001010001111100 .
b100101111001000 6
b0 5
1$
#380000
0$
#390000
1i
1e
b1 f
1a
b101 b
b1110 c
b1111 ^
b11011 _
b100100 Z
b110010 [
1U
b1010110 V
b1011010 W
0Q
b10111101 R
b10100010 S
1M
b110101101 N
b11111110 O
b1110011110 J
b101110010 K
1E
b11110011111 F
b110001101 G
19
b11101101000011100 ;
b1001100110011001100110011001110 (
b1001100110011001100110011001110 -
b1001100110011001100110011001110 .
1$
#400000
0$
#410000
1=
b11111011010000111 ?
0A
0E
b1111000011 J
b100000011 K
b111001001 N
b11000111 O
1Q
b11010100 R
b10000010 S
0U
b1011111 V
b1010000 W
1Y
b101010 Z
b101101 [
0]
b10010 ^
b11001 _
0a
b111 b
b1101 c
0e
b10 f
0i
0m
b1010001111010111000010100100000 (
b1010001111010111000010100100000 -
b1010001111010111000010100100000 .
1$
#420000
0$
#430000
b111110100101 '
b111110100101 1
b111101111001110 )
b111101111001110 3
b111101111001110 q
b1 j
b11 f
b110 g
b1001 b
b1100 c
1]
b10101 ^
b10110 _
0Y
b101111 Z
b100111 [
1U
b1101001 V
b1000010 W
b11100011 R
b1100111 S
b111011101 N
b10010000 O
b1111011100 J
b10001001 K
1E
b11111000101 F
b11111111110100001 G
1A
b11111111011010000 C
b1010111000010100011110101110010 (
b1010111000010100011110101110010 -
b1010111000010100011110101110010 .
1$
#440000
0$
#450000
0A
0E
b1011110 G
b1111100101 J
b1110 K
b111101011 N
b1010100 O
b11101101 R
b1001100 S
b1110001 V
b110100 W
1Y
b110100 Z
b100001 [
0]
b11000 ^
b10011 _
1a
b1010 b
b1011 c
b100 f
b1111100000101 '
b1111100000101 1
b111100011100010 )
b111100011100010 3
b111100011100010 q
b1011100001010001111010111000100 (
b1011100001010001111010111000100 -
b1011100001010001111010111000100 .
b1000010000110010 !
b1000010000110010 *
b1000010000110010 r
1$
#460000
0$
#470000
b10110111110001 '
b10110111110001 1
b111010000001010 )
b111010000001010 3
b111010000001010 q
1m
1i
b10 j
1e
b101 f
b101 g
0a
b1100 b
b1001 c
1]
b11010 ^
b10000 _
b111000 Z
b11010 [
0U
b1110110 V
b100111 W
b11110101 R
b101110 S
b111110010 N
b10110 O
0I
b11111111111110001 K
1E
b11110011111 F
b11111111001110010 G
0=
b1100001010001111010111000010110 (
b1100001010001111010111000010110 -
b1100001010001111010111000010110 .
b1000011100011110 !
b1000011100011110 *
b1000011100011110 r
1$
#480000
0$
#490000
1A
b110100000110 B
b11111011110110110 C
0E
b1111011100 J
b11111111101110110 K
0M
b11111111111101001 O
b11111001 R
b1111 S
b1111010 V
b10111 W
0Y
b111011 Z
b10011 [
0]
b11100 ^
b1101 _
b1101 b
b1000 c
0e
b110 f
b100 g
0i
b10 k
0m
b1 n
b11110000011100 '
b11110000011100 1
b110110101011110 )
b110110101011110 3
b110110101011110 q
b1100110011001100110011001101000 (
b1100110011001100110011001101000 -
b1100110011001100110011001101000 .
b1000101111110110 !
b1000101111110110 *
b1000101111110110 r
1$
#500000
0$
#510000
b100100101011001 '
b100100101011001 1
b110010011111000 )
b110010011111000 3
b110010011111000 q
b11 j
1a
b1110 b
b110 c
1]
b11101 ^
b1001 _
b111101 Z
b1011 [
b1111100 V
b1000 W
0Q
b11111111111110000 S
b111101011 N
b11111111110101011 O
b1111000011 J
b11111111011111100 K
1E
b11100000111 F
b11111110010101011 G
09
b1101011100001010001111010111010 (
b1101011100001010001111010111010 -
b1101011100001010001111010111010 .
b1001001010100010 !
b1001001010100010 *
b1001001010100010 r
1$
#520000
0$
#530000
1=
b100101111001 >
b11110001110010101 ?
0A
0E
b1110011110 J
b11111111010001101 K
b111011101 N
b11111111101101111 O
b11110101 R
b11111111111010001 S
1U
b11111111111110111 W
b111110 Z
b100 [
b11110 ^
b101 _
b100 c
b111 f
b11 g
1m
b101010101101100 '
b101010101101100 1
b101101011111001 )
b101101011111001 3
b101101011111001 q
b1110000101000111101011100001100 (
b1110000101000111101011100001100 -
b1110000101000111101011100001100 .
b1001101100001000 !
b1001101100001000 *
b1001101100001000 r
1$
#540000
0$
#550000
b110000000100010 '
b110000000100010 1
b100111110001111 )
b100111110001111 3
b100111110001111 q
1i
b1 k
1e
b10 g
0a
b1111 b
b10 c
0]
b11111 ^
b1 _
1Y
b11111111111111011 [
b1111010 V
b11111111111101000 W
b11101101 R
b11111111110110011 S
b111001001 N
b11111111100111000 O
b1101101001 J
b11111111000011101 K
b10111111110 F
b11111101100001010 G
1A
b100001001001 B
b11111001011111001 C
b1110101110000101000111101011110 (
b1110101110000101000111101011110 -
b1110101110000101000111101011110 .
b1010010100000111 !
b1010010100000111 *
b1010010100000111 r
1$
#560000
0$
#570000
1E
b10011110101 F
b11111101000000001 G
1I
b1011010111 J
b11111110101010101 K
b110101101 N
b11111111100000001 O
b11100011 R
b11111111110011000 S
b1110110 V
b11111111111011000 W
b111101 Z
b11111111111110100 [
1]
b11111111111111110 _
1a
b0 c
b1 g
0m
b0 o
b110100101100000 '
b110100101100000 1
b100001011011100 )
b100001011011100 3
b100001011011100 q
b1111010111000010100011110110000 (
b1111010111000010100011110110000 -
b1111010111000010100011110110000 .
b1011000001110001 !
b1011000001110001 *
b1011000001110001 r
1$
#580000
0$
#590000
b10 2
b111000011101011 '
b111000011101011 1
b11010100100010 )
b11010100100010 3
b11010100100010 q
b0 k
0e
b0 g
0a
b11111111111111111 c
0]
b11110 ^
b11111111111111010 _
b111011 Z
b11111111111101100 [
0U
b1110001 V
b11111111111001011 W
b11010100 R
b11111111101111101 S
1M
b101110110 N
b11111111010110110 O
b1010101010 J
b11111110100101000 K
0E
0A
b10000000000000000000000000000010 (
b10000000000000000000000000000010 -
b10000000000000000000000000000010 .
b1011110100100100 !
b1011110100100100 *
b1011110100100100 r
1$
#600000
0$
#610000
0=
1E
b1101010100 F
b11111100011111000 G
0I
b1001001010 J
b11111110011011001 K
0M
b101100000 N
b11111111010011110 O
1Q
b10111101 R
b11111111101011101 S
b1101001 V
b11111111110111101 W
0Y
b111000 Z
b11111111111100101 [
b11101 ^
b11111111111110110 _
1a
b11111111111111101 c
1e
b11111111111111111 g
0i
1m
b111011010110100 '
b111011010110100 1
b10011010001100 )
b10011010001100 3
b10011010001100 q
17
b10000101000111101011100001010100 (
b10000101000111101011100001010100 -
b10000101000111101011100001010100 .
b11011010000111000 6
b1100101011011110 !
b1100101011011110 *
b1100101011011110 r
1$
#620000
0$
#630000
b111101010010110 '
b111101010010110 1
b1011101011101 )
b1011101011101 3
b1011101011101 q
1i
b11111111111111111 k
0e
b11111111111111110 g
0a
b1110 b
b11111111111111011 c
1]
b11100 ^
b11111111111110010 _
b110100 Z
b11111111111011110 [
1U
b1011111 V
b11111111110101111 W
0Q
b10101101 R
b11111111101001100 S
1M
b100011000 N
b11111111001100011 O
b111100010 J
b11111110010010110 K
0E
1A
b100101111 B
b11111000010011011 C
19
b11101101000011100 :
b10001010001111010111000010100110 (
b10001010001111010111000010100110 -
b10001010001111010111000010100110 .
b1101100101110100 !
b1101100101110100 *
b1101100101110100 r
1$
#640000
0$
#650000
1=
b11111011010000111 >
1E
b110001101 F
b11111100001100000 G
b101110010 J
b11111110001100001 K
b11100011 N
b11111111001000011 O
1Q
b10001111 R
b11111111100110011 S
0U
b1010110 V
b11111111110100101 W
1Y
b101111 Z
b11111111111011000 [
0]
b11010 ^
b11111111111101111 _
b11111111111111001 c
b11111111111111101 g
0i
0m
b11111111111111111 o
b111110010001101 '
b111110010001101 1
b11111010111 )
b11111010111 3
b11111010111 q
b10001111010111000010100011111000 (
b10001111010111000010100011111000 -
b10001111010111000010100011111000 .
b1110100010100011 !
b1110100010100011 *
b1110100010100011 r
1$
#660000
0$
#670000
b1111100000101001 )
b1111100000101001 3
b1111100000101001 q
b11111111111111110 k
1e
b11111111111111100 g
1a
b1101 b
b11111111111110111 c
1]
b11000 ^
b11111111111101100 _
0Y
b101010 Z
b11111111111010010 [
1U
b1001000 V
b11111111110011010 W
b1110101 R
b11111111100100011 S
b10101010 N
b11111111000101010 O
b100000011 J
b11111110000111100 K
0E
b11111111011010000 B
b10010100011110101110000101001010 (
b10010100011110101110000101001010 -
b10010100011110101110000101001010 .
b1111100000101001 !
b1111100000101001 *
b1111100000101001 r
1$
#680000
0$
#690000
0A
b1011110 F
b11111100000111010 G
b10001001 J
b11111110000100011 K
b1110010 N
b11111111000011010 O
b1011000 R
b11111111100010110 S
b111011 V
b11111111110010010 W
1Y
b100100 Z
b11111111111001101 [
0]
b10101 ^
b11111111111101001 _
b1100 b
b11111111111110110 c
b110 f
b11111111111111011 g
1m
b111101010010010 '
b111101010010010 1
b1110100010100011 )
b1110100010100011 3
b1110100010100011 q
b10011001100110011001100110011100 (
b10011001100110011001100110011100 -
b10011001100110011001100110011100 .
b11111010111 !
b11111010111 *
b11111010111 r
1$
#700000
0$
#710000
b111011010101110 '
b111011010101110 1
b1101100101110100 )
b1101100101110100 3
b1101100101110100 q
1i
b11111111111111101 k
0a
b1010 b
b11111111111110100 c
1]
b10010 ^
b11111111111100110 _
b11101 Z
b11111111111001001 [
b101101 V
b11111111110001011 W
b111101 R
b11111111100001110 S
b110101 N
b11111111000001111 O
1I
b11111111111110001 J
b11111110000011010 K
1E
b11111111001110010 F
b11111100001100000 G
0=
b10011110101110000101000111101110 (
b10011110101110000101000111101110 -
b10011110101110000101000111101110 .
b1011101011101 !
b1011101011101 *
b1011101011101 r
1$
#720000
0$
#730000
1A
b11111011110110110 B
b11111001011111001 C
0E
b11111111101110110 J
b11111110000100011 K
0M
b1000 N
b11111111000001100 O
b11110 R
b11111111100001000 S
0U
b11111 V
b11111111110000111 W
b10110 Z
b11111111111000101 [
0]
b1111 ^
b11111111111100100 _
1a
b1001 b
b11111111111110011 c
0e
b101 f
b11111111111111010 g
0m
b11111111111111110 o
b111000011101001 '
b111000011101001 1
b1100101011011110 )
b1100101011011110 3
b1100101011011110 q
b10100011110101110000101001000000 (
b10100011110101110000101001000000 -
b10100011110101110000101001000000 .
b10011010001100 !
b10011010001100 *
b10011010001100 r
1$
#740000
0$
#750000
b110100101011100 '
b110100101011100 1
b1011110100100100 )
b1011110100100100 3
b1011110100100100 q
b10 j
1e
b100 f
b11111111111111001 g
b111 b
b11111111111110010 c
b1011 ^
b11111111111100011 _
0Y
b1111 Z
b11111111111000011 [
b10000 V
b11111111110000100 W
0Q
b0 R
b11111111100000110 S
b11111111111001010 N
b11111111000001111 O
b11111111011111100 J
b11111110000111100 K
1E
b11111110010101011 F
b11111100011111000 G
b10101000111101011100001010010010 (
b10101000111101011100001010010010 -
b10101000111101011100001010010010 .
b11010100100010 !
b11010100100010 *
b11010100100010 r
1$
#760000
0$
#770000
09
0A
0E
b11111111010001110 J
b11111110001100001 K
b11111111110001101 N
b11111111000011010 O
b11111111111100001 R
b11111111100001000 S
1U
b11111111111111111 V
b11111111110000011 W
b111 Z
b11111111111000010 [
1]
b111 ^
b11111111111100001 _
0a
b101 b
b11111111111110001 c
b11 f
0i
b11111111111111100 k
1m
b110000000101000 '
b110000000101000 1
b1011000001110001 )
b1011000001110001 3
b1011000001110001 q
b10101110000101000111101011100100 (
b10101110000101000111101011100100 -
b10101110000101000111101011100100 .
b100001011011100 !
b100001011011100 *
b100001011011100 r
1$
#780000
0$
#790000
b101010101101010 '
b101010101101010 1
b1010010100000111 )
b1010010100000111 3
b1010010100000111 q
1i
b1 j
b10 f
b11111111111111000 g
1a
b11 b
b11111111111110000 c
b11 ^
1Y
b11111111111111111 Z
b11111111111000001 [
b11111111111101111 V
b11111111110000100 W
b11111111111000010 R
b11111111100001110 S
b11111111101010101 N
b11111111000101010 O
b11111111000011101 J
b11111110010010110 K
1E
b11111101100001010 F
b11111101000000001 G
1=
b11110001110010101 >
b11111011010000111 ?
b10110011001100110011001100110110 (
b10110011001100110011001100110110 -
b10110011001100110011001100110110 .
b100111110001111 !
b100111110001111 *
b100111110001111 r
1$
#800000
0$
#810000
1A
b11111001011111001 B
b11111011110110110 C
0E
b11111110110110101 J
b11111110011011001 K
b11111111100011100 N
b11111111001000011 O
b11111111110100111 R
b11111111100010110 S
b11111111111100000 V
b11111111110000111 W
b11111111111111000 Z
b11111111111000010 [
b11111111111111111 ^
b11111111111100000 _
0a
b1 b
0e
b1 f
0m
b0 n
b100100101011111 '
b100100101011111 1
b1001101100001000 )
b1001101100001000 3
b1001101100001000 q
b10111000010100011110101110001000 (
b10111000010100011110101110001000 -
b10111000010100011110101110001000 .
b101101011111001 !
b101101011111001 *
b101101011111001 r
1$
#820000
0$
#830000
b11110000100000 '
b11110000100000 1
b1001001010100010 )
b1001001010100010 3
b1001001010100010 q
1m
b0 j
1e
b0 f
1a
b11111111111111111 b
0]
b11111111111111100 ^
b11111111111100001 _
b11111111111110000 Z
b11111111111000011 [
0U
b11111111111010010 V
b11111111110001011 W
b11111111110001010 R
b11111111100100011 S
b11111111011100111 N
b11111111001100011 O
0I
b11111110101010101 J
b11111110100101000 K
1E
b11111101000000001 F
b11111101100001010 G
0A
b10111101011100001010001111011010 (
b10111101011100001010001111011010 -
b10111101011100001010001111011010 .
b110010011111000 !
b110010011111000 *
b110010011111000 r
1$
#840000
0$
#850000
b11 2
0=
b11111100011111000 F
b11111110010101011 G
b11111110100101000 J
b11111110101010101 K
1M
b11111111010011111 N
b11111111010011110 O
b11111111101110000 R
b11111111100110011 S
b11111111111000100 V
b11111111110010010 W
0Y
b11111111111101001 Z
b11111111111000101 [
b11111111111111000 ^
b11111111111111110 b
0e
0i
b10110111110011 '
b10110111110011 1
b1000101111110110 )
b1000101111110110 3
b1000101111110110 q
b11000010100011110101110000101100 (
b11000010100011110101110000101100 -
b11000010100011110101110000101100 .
b110110101011110 !
b110110101011110 *
b110110101011110 r
1$
#860000
0$
#870000
b1111100001001 '
b1111100001001 1
b1000011100011110 )
b1000011100011110 3
b1000011100011110 q
b11111111111111111 f
0a
b11111111111111100 b
1]
b11111111111110100 ^
b11111111111100011 _
b11111111111100010 Z
b11111111111001001 [
b11111111110110111 V
b11111111110011010 W
1Q
b11111111101010010 R
b11111111101001100 S
0M
b11111111010001001 N
b11111111010110110 O
1I
b11111110010010110 J
b11111111000011101 K
0E
1A
b11111000010011011 B
b11111111011010000 C
b11000111101011100001010001111110 (
b11000111101011100001010001111110 -
b11000111101011100001010001111110 .
b111010000001010 !
b111010000001010 *
b111010000001010 r
b0 6
b100101111001000 5
1$
#880000
0$
#890000
19
b10010111100100 ;
1E
b11111100001100000 F
b11111111001110010 G
b11111110001100001 J
b11111111010001110 K
1M
b11111111001010010 N
b11111111100000001 O
0Q
b11111111101000010 R
b11111111101011101 S
1U
b11111111110101001 V
b11111111110100101 W
b11111111111011011 Z
b11111111111001101 [
b11111111111110000 ^
b11111111111100100 _
1a
b11111111111111010 b
b11111111111110001 c
1e
b11111111111111110 f
1i
b11111111111111111 j
b11111111111111111 n
b111110100101 '
b111110100101 1
b1000010000110010 )
b1000010000110010 3
b1000010000110010 q
b11001100110011001100110011010000 (
b11001100110011001100110011010000 -
b11001100110011001100110011010000 .
b111100011100010 !
b111100011100010 *
b111100011100010 r
1$
#900000
0$
#910000
b0 '
b0 1
b1000001100110001 )
b1000001100110001 3
b1000001100110001 q
0m
0i
0e
b11111111111111101 f
0a
b11111111111111000 b
b11111111111110010 c
0]
b11111111111101101 ^
b11111111111100110 _
1Y
b11111111111010101 Z
b11111111111010010 [
0U
b11111111110100000 V
b11111111110101111 W
1Q
b11111111100101011 R
b11111111101111101 S
b11111111000110110 N
b11111111100111000 O
b11111110000111100 J
b11111111011111100 K
0E
0A
1=
b100101111001 ?
b11010001111010111000010100100010 (
b11010001111010111000010100100010 -
b11010001111010111000010100100010 .
b111101111001110 !
b111101111001110 *
b111101111001110 r
1$
#920000
0$
#930000
1A
b100101111 C
1E
b11111100000111010 F
b1011110 G
b11111110000100011 J
b11111111101110110 K
b11111111000100010 N
b11111111101101110 O
b11111111100011100 R
b11111111110011000 S
1U
b11111111110010110 V
b11111111110111101 W
0Y
b11111111111010000 Z
b11111111111011000 [
1]
b11111111111101010 ^
b11111111111101001 _
b11111111111110110 b
b11111111111110011 c
b11111111111111100 f
b11111111111111001 g
b11111111111111110 j
b1111000001011011 '
b1111000001011011 1
b1000010000110010 )
b1000010000110010 3
b1000010000110010 q
b11010111000010100011110101110100 (
b11010111000010100011110101110100 -
b11010111000010100011110101110100 .
b111110011001111 !
b111110011001111 *
b111110011001111 r
1$
#940000
0$
#950000
b1110000011110111 '
b1110000011110111 1
b1000011100100010 )
b1000011100100010 3
b1000011100100010 q
b11111111111111011 f
1a
b11111111111110101 b
b11111111111110100 c
0]
b11111111111100111 ^
b11111111111101100 _
1Y
b11111111111001011 Z
b11111111111011110 [
b11111111110001110 V
b11111111111001011 W
b11111111100010010 R
b11111111110110011 S
b11111111000010100 N
b11111111110101011 O
b11111110000011010 J
b11111111111110001 K
0E
b11111111110100001 G
0A
b11011100001010001111010111000110 (
b11011100001010001111010111000110 -
b11011100001010001111010111000110 .
b111101111001110 !
b111101111001110 *
b111101111001110 r
1$
#960000
0$
#970000
0=
1E
b11111100001100000 F
b110001101 G
0I
b1110 K
b11111111000001101 N
b11111111111101001 O
b11111111100001010 R
b11111111111010001 S
0U
b11111111110001001 V
b11111111111011000 W
b11111111111000111 Z
b11111111111100101 [
1]
b11111111111100101 ^
b11111111111101111 _
0a
b11111111111110011 b
b11111111111110110 c
1e
b11111111111111010 f
b11111111111111010 g
1i
b11111111111111101 j
1m
b1101001000001101 '
b1101001000001101 1
b1000101111111001 )
b1000101111111001 3
b1000101111111001 q
b11100001010001111010111000011000 (
b11100001010001111010111000011000 -
b11100001010001111010111000011000 .
b111100011011110 !
b111100011011110 *
b111100011011110 r
1$
#980000
0$
#990000
b1100001111100000 '
b1100001111100000 1
b1001001010100110 )
b1001001010100110 3
b1001001010100110 q
0m
b11111111111111110 n
0i
b11111111111111101 k
0e
b11111111111111001 f
b11111111111111011 g
b11111111111110010 b
b11111111111110111 c
0]
b11111111111100011 ^
b11111111111110010 _
0Y
b11111111111000100 Z
b11111111111101100 [
b11111111110000101 V
b11111111111101000 W
b11111111100000110 R
b11111111111110000 S
0M
b10111 O
b11111110000100011 J
b10001001 K
0E
1A
b11111001011111001 B
b100001001001 C
b11100110011001100110011001101010 (
b11100110011001100110011001101010 -
b11100110011001100110011001101010 .
b111010000000111 !
b111010000000111 *
b111010000000111 r
1$
#1000000
0$
#1010000
09
1E
b11111100011111000 F
b1101010100 G
b11111110000111100 J
b100000011 K
b11111111000010100 N
b1010100 O
0Q
b1111 S
b11111111110000011 V
b11111111111110111 W
b11111111111000010 Z
b11111111111110100 [
1]
b11111111111100010 ^
b11111111111110110 _
1a
b11111111111110001 b
b11111111111111001 c
b11111111111111100 j
b1011011010100001 '
b1011011010100001 1
b1001101100001110 )
b1001101100001110 3
b1001101100001110 q
b11101011100001010001111010111100 (
b11101011100001010001111010111100 -
b11101011100001010001111010111100 .
b110110101011010 !
b110110101011010 *
b110110101011010 r
1$
#1020000
0$
#1030000
b1010101010010110 '
b1010101010010110 1
b1010010100000101 )
b1010010100000101 3
b1010010100000101 q
1m
b11111111111111000 f
b11111111111111100 g
b11111111111111011 c
b11111111111100001 ^
b11111111111111010 _
b11111111111000001 Z
b11111111111111011 [
1U
b1000 W
b11111111100001010 R
b101110 S
b11111111000100010 N
b10010001 O
b11111110001100001 J
b101110010 K
0E
0A
1=
b11111011010000111 >
b1110001101011 ?
b11110000101000111101011100001110 (
b11110000101000111101011100001110 -
b11110000101000111101011100001110 .
b110010011110010 !
b110010011110010 *
b110010011110010 r
1$
#1040000
0$
#1050000
1A
b11111011110110110 B
b110100000110 C
b11111101000000001 F
b10011110101 G
b11111110010010110 J
b111100010 K
b11111111000110110 N
b11000111 O
b11111111100010010 R
b1001100 S
b11111111110000101 V
b10111 W
1Y
b100 [
0]
b11111111111100000 ^
b11111111111111110 _
0a
b11111111111110000 b
b11111111111111101 c
1e
b11111111111111101 g
1i
b11111111111111110 k
b1001111111011000 '
b1001111111011000 1
b1011000001110111 )
b1011000001110111 3
b1011000001110111 q
b11110101110000101000111101100000 (
b11110101110000101000111101100000 -
b11110101110000101000111101100000 .
b101101011111011 !
b101101011111011 *
b101101011111011 r
1$
#1060000
0$
#1070000
b1001011010100100 '
b1001011010100100 1
b1011110100100000 )
b1011110100100000 3
b1011110100100000 q
0m
b11111111111111111 o
b11111111111111110 g
1a
b11111111111111111 c
1]
b1 _
b11111111111000010 Z
b1011 [
b11111111110001001 V
b100111 W
b11111111100011100 R
b1100111 S
b11111111001010010 N
b11111110 O
1I
b11111110100101000 J
b1010101010 K
1E
b11111101100001010 F
b10111111110 G
b11111010111000010100011110110010 (
b11111010111000010100011110110010 -
b11111010111000010100011110110010 .
b100111110001001 !
b100111110001001 *
b100111110001001 r
1$
#1080000
0$
